dump/next_pc_dump.vcd
$version Generated by VerilatedVcd $end
$timescale 1ps $end
 $scope module next_pc_tb $end
  $var wire 10 " current_pc [9:0] $end
  $var wire 7 # flags [6:0] $end
  $var wire 18 $ jump_target [17:0] $end
  $var wire 10 % top_address [9:0] $end
  $var wire 1 & pc_write_en $end
  $var wire 10 ' new_pc [9:0] $end
  $scope module uut $end
   $var wire 10 " current_pc [9:0] $end
   $var wire 7 # flags [6:0] $end
   $var wire 18 $ jump_target [17:0] $end
   $var wire 10 % top_address [9:0] $end
   $var wire 1 & pc_write_en $end
   $var wire 10 ' new_pc [9:0] $end
   $var wire 10 ( pc_p1 [9:0] $end
   $var wire 8 ) extended_flags [7:0] $end
   $var wire 1 * ltu $end
   $var wire 1 + gtu $end
   $var wire 1 , lts $end
   $var wire 1 - gts $end
   $var wire 9 . one_hot_code [8:0] $end
   $var wire 10 / jump_address [9:0] $end
   $var wire 1 0 jump_condition $end
   $var wire 1 1 top_condition $end
  $upscope $end
 $upscope $end
$enddefinitions $end


#0
b0100000000 "
b0000000 #
b001000000101010101 $
b0011111010 %
0&
b0100000001 '
b0100000001 (
b10000000 )
0*
0+
0,
0-
b010000000 .
b1010101010 /
00
01
#10
b010000000101010101 $
1&
b0011111010 '
b100000000 .
11
#20
b001000000101010101 $
b1010101010 '
b010000000 .
10
01
#30
b000000011101010101 $
b0100000001 '
1-
b000000001 .
00
#40
b0000001 #
b1010101010 '
b10000001 )
10
#50
b0000000 #
b000000101101010101 $
b0100000001 '
b10000000 )
1,
0-
b000000010 .
00
#60
b0000010 #
b1010101010 '
b10000010 )
10
#70
b0000000 #
b000000010101010101 $
b0100000001 '
b10000000 )
1+
0,
b000000100 .
00
#80
b0000100 #
b1010101010 '
b10000100 )
10
#90
b0000000 #
b000000100101010101 $
b0100000001 '
b10000000 )
1*
0+
b000001000 .
00
#100
b0001000 #
b1010101010 '
b10001000 )
10
#110
b0000000 #
b000001000101010101 $
b0100000001 '
b10000000 )
0*
b000010000 .
00
#120
b0010000 #
b1010101010 '
b10010000 )
10
#130
b0000000 #
b000010000101010101 $
b0100000001 '
b10000000 )
b000100000 .
00
#140
b0100000 #
b1010101010 '
b10100000 )
10
#150
b0000000 #
b000100000101010101 $
b0100000001 '
b10000000 )
b001000000 .
00
#160
b1000000 #
b1010101010 '
b11000000 )
10
